<?xml version="1.0" encoding="UTF-8" standalone="no"?>
<svg
   xmlns:dc="http://purl.org/dc/elements/1.1/"
   xmlns:cc="http://creativecommons.org/ns#"
   xmlns:rdf="http://www.w3.org/1999/02/22-rdf-syntax-ns#"
   xmlns:svg="http://www.w3.org/2000/svg"
   xmlns="http://www.w3.org/2000/svg"
   xmlns:sodipodi="http://sodipodi.sourceforge.net/DTD/sodipodi-0.dtd"
   xmlns:inkscape="http://www.inkscape.org/namespaces/inkscape"
   width="300"
   height="350"
   version="1.1"
   id="svg2029"
   sodipodi:docname="TP_git_branches_4.svg"
   inkscape:version="0.92.4 (5da689c313, 2019-01-14)">
  <metadata
     id="metadata2035">
    <rdf:RDF>
      <cc:Work
         rdf:about="">
        <dc:format>image/svg+xml</dc:format>
        <dc:type
           rdf:resource="http://purl.org/dc/dcmitype/StillImage" />
        <dc:title></dc:title>
      </cc:Work>
    </rdf:RDF>
  </metadata>
  <defs
     id="defs2033" />
  <sodipodi:namedview
     pagecolor="#ffffff"
     bordercolor="#666666"
     borderopacity="1"
     objecttolerance="10"
     gridtolerance="10"
     guidetolerance="10"
     inkscape:pageopacity="0"
     inkscape:pageshadow="2"
     inkscape:window-width="640"
     inkscape:window-height="480"
     id="namedview2031"
     showgrid="false"
     inkscape:pagecheckerboard="true"
     inkscape:zoom="1.8333333"
     inkscape:cx="126.83471"
     inkscape:cy="177.17212"
     inkscape:current-layer="svg2029" />
  <g
     transform="translate(-1.0909091,179.27273)"
     id="g2027">
    <defs
       id="defs2003">
      <marker
         id="head"
         orient="auto"
         markerWidth="4"
         markerHeight="8"
         refX="0.2"
         refY="3">
        <path
           d="M 0,0 V 6 L 3,3 Z"
           id="path2000"
           inkscape:connector-curvature="0" />
      </marker>
    </defs>
    <circle
       cx="50"
       cy="50"
       r="30"
       id="circle2005"
       style="fill:#90ee90;stroke:#000000;stroke-width:2" />
    <circle
       cx="150"
       cy="50"
       r="30"
       id="circle2007"
       style="fill:#90ee90;stroke:#000000;stroke-width:2" />
    <path
       d="m 80,50 h 40"
       id="path2009"
       inkscape:connector-curvature="0"
       style="stroke:#000000;stroke-width:2" />
    <circle
       cx="250"
       cy="-50"
       r="30"
       id="circle2011"
       style="fill:#90ee90;stroke:#000000;stroke-width:2" />
    <path
       d="m 150,20 c 0,-70 60,-70 70,-70"
       id="path2013"
       inkscape:connector-curvature="0"
       style="fill:none;stroke:#000000;stroke-width:2" />
    <rect
       x="225"
       y="-170"
       width="50"
       height="40"
       id="rect2015"
       style="fill:#f0e68c;stroke:#000000;stroke-width:2" />
    <text
       x="240"
       y="-145"
       font-size="18"
       id="text2017"
       style="font-size:18px">cli</text>
    <path
       d="m 250,-130 v 40"
       id="path2019"
       inkscape:connector-curvature="0"
       style="stroke:#000000;stroke-width:2;marker-end:url(#head)" />
    <rect
       x="110"
       y="120"
       width="80"
       height="40"
       id="rect2021"
       style="fill:#ffa500;stroke:#000000;stroke-width:2" />
    <text
       x="120"
       y="145"
       font-size="18"
       id="text2023"
       style="font-size:18px">main</text>
    <path
       d="M 150,120 V 90"
       id="path2025"
       inkscape:connector-curvature="0"
       style="stroke:#000000;stroke-width:2;marker-end:url(#head)" />
  </g>
</svg>
