<?xml version="1.0" encoding="UTF-8" standalone="no"?>
<svg
   xmlns:dc="http://purl.org/dc/elements/1.1/"
   xmlns:cc="http://creativecommons.org/ns#"
   xmlns:rdf="http://www.w3.org/1999/02/22-rdf-syntax-ns#"
   xmlns:svg="http://www.w3.org/2000/svg"
   xmlns="http://www.w3.org/2000/svg"
   xmlns:sodipodi="http://sodipodi.sourceforge.net/DTD/sodipodi-0.dtd"
   xmlns:inkscape="http://www.inkscape.org/namespaces/inkscape"
   viewBox="0 0 24 24"
   version="1.1"
   id="svg16"
   sodipodi:docname="icon-slides.svg"
   inkscape:version="0.92.4 (5da689c313, 2019-01-14)">
  <metadata
     id="metadata20">
    <rdf:RDF>
      <cc:Work
         rdf:about="">
        <dc:format>image/svg+xml</dc:format>
        <dc:type
           rdf:resource="http://purl.org/dc/dcmitype/StillImage" />
        <dc:title>presentation-board-graph</dc:title>
      </cc:Work>
    </rdf:RDF>
  </metadata>
  <sodipodi:namedview
     pagecolor="#ffffff"
     bordercolor="#666666"
     borderopacity="1"
     objecttolerance="10"
     gridtolerance="10"
     guidetolerance="10"
     inkscape:pageopacity="0"
     inkscape:pageshadow="2"
     inkscape:window-width="1310"
     inkscape:window-height="781"
     id="namedview18"
     showgrid="false"
     inkscape:zoom="27.812867"
     inkscape:cx="1.381729"
     inkscape:cy="10.369195"
     inkscape:window-x="0"
     inkscape:window-y="31"
     inkscape:window-maximized="0"
     inkscape:current-layer="svg16" />
  <defs
     id="defs4">
    <style
       id="style2">.a{fill:none;stroke:#000;stroke-linecap:round;stroke-miterlimit:10;}</style>
  </defs>
  <title
     id="title6">presentation-board-graph</title>
  <rect
     class="a"
     x="0.9611724"
     y="0.96177089"
     width="22.109093"
     height="14.377406"
     rx="0.96126491"
     ry="0.95849377"
     id="rect8"
     style="fill:#fffffd;fill-opacity:1;stroke:#4d4d4d;stroke-width:1.91975665;stroke-linecap:round;stroke-miterlimit:10;stroke-dasharray:none" />
  <line
     class="a"
     x1="11.535086"
     y1="15.339177"
     x2="11.535086"
     y2="18.607641"
     id="line10"
     style="fill:none;stroke:#4d4d4d;stroke-width:1.91975665;stroke-linecap:round;stroke-miterlimit:10;stroke-dasharray:none" />
  <path
     class="a"
     d="m 6.7287619,23.007127 4.1267101,-4.114814 a 0.9612649,0.95849374 0 0 1 1.359229,0 l 4.12671,4.114814"
     id="path12"
     style="fill:none;stroke:#4d4d4d;stroke-width:1.91975665;stroke-linecap:round;stroke-miterlimit:10;stroke-dasharray:none"
     inkscape:connector-curvature="0" />
  <path
     class="a"
     d="M 0.96117234,8.6297208 H 6.4115444 A 0.48063245,0.47924688 0 0 0 6.8537262,8.3421725 l 0.8526421,-1.984082 a 0.48063245,0.47924688 0 0 1 0.8901311,0.017253 l 1.6053136,4.1627385 a 0.48063245,0.47924688 0 0 0 0.870905,0.05751 l 1.992701,-3.6422781 a 0.48063245,0.47924688 0 0 1 0.829572,-0.024921 l 1.491883,2.3818569 a 0.48063245,0.47924688 0 0 0 0.845914,-0.055593 L 18.263941,4.795745"
     id="path14"
     inkscape:connector-curvature="0"
     style="fill:none;stroke:#4d4d4d;stroke-width:0.95987833;stroke-linecap:round;stroke-miterlimit:10" />
</svg>
