<?xml version="1.0" encoding="UTF-8" standalone="no"?>
<svg
   xmlns:dc="http://purl.org/dc/elements/1.1/"
   xmlns:cc="http://creativecommons.org/ns#"
   xmlns:rdf="http://www.w3.org/1999/02/22-rdf-syntax-ns#"
   xmlns:svg="http://www.w3.org/2000/svg"
   xmlns="http://www.w3.org/2000/svg"
   xmlns:sodipodi="http://sodipodi.sourceforge.net/DTD/sodipodi-0.dtd"
   xmlns:inkscape="http://www.inkscape.org/namespaces/inkscape"
   width="100px"
   height="100px"
   viewBox="0 0 100 100"
   version="1.1"
   id="svg13"
   sodipodi:docname="icon-home.svg"
   inkscape:version="0.92.4 (5da689c313, 2019-01-14)">
  <metadata
     id="metadata17">
    <rdf:RDF>
      <cc:Work
         rdf:about="">
        <dc:format>image/svg+xml</dc:format>
        <dc:type
           rdf:resource="http://purl.org/dc/dcmitype/StillImage" />
        <dc:title>48. Home</dc:title>
      </cc:Work>
    </rdf:RDF>
  </metadata>
  <sodipodi:namedview
     pagecolor="#ffffff"
     bordercolor="#666666"
     borderopacity="1"
     objecttolerance="10"
     gridtolerance="10"
     guidetolerance="10"
     inkscape:pageopacity="0"
     inkscape:pageshadow="2"
     inkscape:window-width="640"
     inkscape:window-height="480"
     id="namedview15"
     showgrid="false"
     inkscape:zoom="5.8336309"
     inkscape:cx="28.066348"
     inkscape:cy="59.643067"
     inkscape:current-layer="48.-Home" />
  <!-- Generator: Sketch 50 (54983) - http://www.bohemiancoding.com/sketch -->
  <title
     id="title2">48. Home</title>
  <desc
     id="desc4">Created with Sketch.</desc>
  <defs
     id="defs6" />
  <g
     id="48.-Home"
     stroke="none"
     stroke-width="1"
     fill="none"
     fill-rule="evenodd"
     stroke-linecap="round"
     stroke-linejoin="round">
    <path
       style="stroke:#2d5aff;stroke-width:9.88132095;stroke-miterlimit:4;stroke-dasharray:none;stroke-opacity:1"
       inkscape:connector-curvature="0"
       id="Layer-1"
       d="m 51.075708,5.5891628 c -0.749884,-0.695852 -1.968371,-0.6968024 -2.719279,0 L 6.1957457,46.356599 c -1.9259724,1.862327 -1.2502222,3.37204 1.5188173,3.37204 h 7.752963 v 43.593354 c 0,1.000505 0.860299,1.807795 1.921532,1.807795 h 64.654021 c 1.055476,0 1.921532,-0.809378 1.921532,-1.807795 V 49.728639 h 7.752963 c 2.764792,0 3.502358,-1.559714 1.649626,-3.481413 L 80.429176,32.827602 V 11.37883 h -13.4371 v 8.979867 z" />
    <polyline
       style="stroke:#2d5aff;stroke-width:10.20182228;stroke-miterlimit:4;stroke-dasharray:none;stroke-opacity:1"
       points="31 96 31 54 31 54 59 54 59 96"
       id="Layer-2"
       transform="matrix(1,0,0,0.9381549,5,5.0669174)" />
  </g>
</svg>
